^C:\USERS\EMANUEL MARQUES\ONEDRIVE\ISEP\3º ANO\LAPR5\LAPR5_1516_GRUPO_20\PROJECT\VISITAVIRTUAL_V2\VISITAVIRTUAL3D\VISITAVIRTUAL3D\CAMERA.CPP
C:\USERS\EMANUEL MARQUES\ONEDRIVE\ISEP\3º ANO\LAPR5\LAPR5_1516_GRUPO_20\PROJECT\VISITAVIRTUAL_V2\VISITAVIRTUAL3D\VISITAVIRTUAL3D\DEBUG\VC140.PDB
^C:\USERS\EMANUEL MARQUES\ONEDRIVE\ISEP\3º ANO\LAPR5\LAPR5_1516_GRUPO_20\PROJECT\VISITAVIRTUAL_V2\VISITAVIRTUAL3D\VISITAVIRTUAL3D\DRAW.CPP
C:\USERS\EMANUEL MARQUES\ONEDRIVE\ISEP\3º ANO\LAPR5\LAPR5_1516_GRUPO_20\PROJECT\VISITAVIRTUAL_V2\VISITAVIRTUAL3D\VISITAVIRTUAL3D\DEBUG\VC140.PDB
^C:\USERS\EMANUEL MARQUES\ONEDRIVE\ISEP\3º ANO\LAPR5\LAPR5_1516_GRUPO_20\PROJECT\VISITAVIRTUAL_V2\VISITAVIRTUAL3D\VISITAVIRTUAL3D\GLM.CPP
C:\USERS\EMANUEL MARQUES\ONEDRIVE\ISEP\3º ANO\LAPR5\LAPR5_1516_GRUPO_20\PROJECT\VISITAVIRTUAL_V2\VISITAVIRTUAL3D\VISITAVIRTUAL3D\DEBUG\VC140.PDB
^C:\USERS\EMANUEL MARQUES\ONEDRIVE\ISEP\3º ANO\LAPR5\LAPR5_1516_GRUPO_20\PROJECT\VISITAVIRTUAL_V2\VISITAVIRTUAL3D\VISITAVIRTUAL3D\KEYS.CPP
C:\USERS\EMANUEL MARQUES\ONEDRIVE\ISEP\3º ANO\LAPR5\LAPR5_1516_GRUPO_20\PROJECT\VISITAVIRTUAL_V2\VISITAVIRTUAL3D\VISITAVIRTUAL3D\DEBUG\VC140.PDB
^C:\USERS\EMANUEL MARQUES\ONEDRIVE\ISEP\3º ANO\LAPR5\LAPR5_1516_GRUPO_20\PROJECT\VISITAVIRTUAL_V2\VISITAVIRTUAL3D\VISITAVIRTUAL3D\LIGHT.CPP
C:\USERS\EMANUEL MARQUES\ONEDRIVE\ISEP\3º ANO\LAPR5\LAPR5_1516_GRUPO_20\PROJECT\VISITAVIRTUAL_V2\VISITAVIRTUAL3D\VISITAVIRTUAL3D\DEBUG\VC140.PDB
^C:\USERS\EMANUEL MARQUES\ONEDRIVE\ISEP\3º ANO\LAPR5\LAPR5_1516_GRUPO_20\PROJECT\VISITAVIRTUAL_V2\VISITAVIRTUAL3D\VISITAVIRTUAL3D\MAIN.CPP
C:\USERS\EMANUEL MARQUES\ONEDRIVE\ISEP\3º ANO\LAPR5\LAPR5_1516_GRUPO_20\PROJECT\VISITAVIRTUAL_V2\VISITAVIRTUAL3D\VISITAVIRTUAL3D\DEBUG\VC140.PDB
^C:\USERS\EMANUEL MARQUES\ONEDRIVE\ISEP\3º ANO\LAPR5\LAPR5_1516_GRUPO_20\PROJECT\VISITAVIRTUAL_V2\VISITAVIRTUAL3D\VISITAVIRTUAL3D\MATH.CPP
C:\USERS\EMANUEL MARQUES\ONEDRIVE\ISEP\3º ANO\LAPR5\LAPR5_1516_GRUPO_20\PROJECT\VISITAVIRTUAL_V2\VISITAVIRTUAL3D\VISITAVIRTUAL3D\DEBUG\VC140.PDB
^C:\USERS\EMANUEL MARQUES\ONEDRIVE\ISEP\3º ANO\LAPR5\LAPR5_1516_GRUPO_20\PROJECT\VISITAVIRTUAL_V2\VISITAVIRTUAL3D\VISITAVIRTUAL3D\MDLVIEWER.CPP
C:\USERS\EMANUEL MARQUES\ONEDRIVE\ISEP\3º ANO\LAPR5\LAPR5_1516_GRUPO_20\PROJECT\VISITAVIRTUAL_V2\VISITAVIRTUAL3D\VISITAVIRTUAL3D\DEBUG\VC140.PDB
^C:\USERS\EMANUEL MARQUES\ONEDRIVE\ISEP\3º ANO\LAPR5\LAPR5_1516_GRUPO_20\PROJECT\VISITAVIRTUAL_V2\VISITAVIRTUAL3D\VISITAVIRTUAL3D\MODEL.CPP
C:\USERS\EMANUEL MARQUES\ONEDRIVE\ISEP\3º ANO\LAPR5\LAPR5_1516_GRUPO_20\PROJECT\VISITAVIRTUAL_V2\VISITAVIRTUAL3D\VISITAVIRTUAL3D\DEBUG\VC140.PDB
^C:\USERS\EMANUEL MARQUES\ONEDRIVE\ISEP\3º ANO\LAPR5\LAPR5_1516_GRUPO_20\PROJECT\VISITAVIRTUAL_V2\VISITAVIRTUAL3D\VISITAVIRTUAL3D\OBJECT.CPP
C:\USERS\EMANUEL MARQUES\ONEDRIVE\ISEP\3º ANO\LAPR5\LAPR5_1516_GRUPO_20\PROJECT\VISITAVIRTUAL_V2\VISITAVIRTUAL3D\VISITAVIRTUAL3D\DEBUG\VC140.PDB
^C:\USERS\EMANUEL MARQUES\ONEDRIVE\ISEP\3º ANO\LAPR5\LAPR5_1516_GRUPO_20\PROJECT\VISITAVIRTUAL_V2\VISITAVIRTUAL3D\VISITAVIRTUAL3D\POSITION.CPP
C:\USERS\EMANUEL MARQUES\ONEDRIVE\ISEP\3º ANO\LAPR5\LAPR5_1516_GRUPO_20\PROJECT\VISITAVIRTUAL_V2\VISITAVIRTUAL3D\VISITAVIRTUAL3D\DEBUG\VC140.PDB
^C:\USERS\EMANUEL MARQUES\ONEDRIVE\ISEP\3º ANO\LAPR5\LAPR5_1516_GRUPO_20\PROJECT\VISITAVIRTUAL_V2\VISITAVIRTUAL3D\VISITAVIRTUAL3D\RAIN.CPP
C:\USERS\EMANUEL MARQUES\ONEDRIVE\ISEP\3º ANO\LAPR5\LAPR5_1516_GRUPO_20\PROJECT\VISITAVIRTUAL_V2\VISITAVIRTUAL3D\VISITAVIRTUAL3D\DEBUG\VC140.PDB
^C:\USERS\EMANUEL MARQUES\ONEDRIVE\ISEP\3º ANO\LAPR5\LAPR5_1516_GRUPO_20\PROJECT\VISITAVIRTUAL_V2\VISITAVIRTUAL3D\VISITAVIRTUAL3D\SKYBOX.CPP
C:\USERS\EMANUEL MARQUES\ONEDRIVE\ISEP\3º ANO\LAPR5\LAPR5_1516_GRUPO_20\PROJECT\VISITAVIRTUAL_V2\VISITAVIRTUAL3D\VISITAVIRTUAL3D\DEBUG\VC140.PDB
^C:\USERS\EMANUEL MARQUES\ONEDRIVE\ISEP\3º ANO\LAPR5\LAPR5_1516_GRUPO_20\PROJECT\VISITAVIRTUAL_V2\VISITAVIRTUAL3D\VISITAVIRTUAL3D\STATE.CPP
C:\USERS\EMANUEL MARQUES\ONEDRIVE\ISEP\3º ANO\LAPR5\LAPR5_1516_GRUPO_20\PROJECT\VISITAVIRTUAL_V2\VISITAVIRTUAL3D\VISITAVIRTUAL3D\DEBUG\VC140.PDB
^C:\USERS\EMANUEL MARQUES\ONEDRIVE\ISEP\3º ANO\LAPR5\LAPR5_1516_GRUPO_20\PROJECT\VISITAVIRTUAL_V2\VISITAVIRTUAL3D\VISITAVIRTUAL3D\STUDIO_RENDER.CPP
C:\USERS\EMANUEL MARQUES\ONEDRIVE\ISEP\3º ANO\LAPR5\LAPR5_1516_GRUPO_20\PROJECT\VISITAVIRTUAL_V2\VISITAVIRTUAL3D\VISITAVIRTUAL3D\DEBUG\VC140.PDB
^C:\USERS\EMANUEL MARQUES\ONEDRIVE\ISEP\3º ANO\LAPR5\LAPR5_1516_GRUPO_20\PROJECT\VISITAVIRTUAL_V2\VISITAVIRTUAL3D\VISITAVIRTUAL3D\STUDIO_UTILS.CPP
C:\USERS\EMANUEL MARQUES\ONEDRIVE\ISEP\3º ANO\LAPR5\LAPR5_1516_GRUPO_20\PROJECT\VISITAVIRTUAL_V2\VISITAVIRTUAL3D\VISITAVIRTUAL3D\DEBUG\VC140.PDB
^C:\USERS\EMANUEL MARQUES\ONEDRIVE\ISEP\3º ANO\LAPR5\LAPR5_1516_GRUPO_20\PROJECT\VISITAVIRTUAL_V2\VISITAVIRTUAL3D\VISITAVIRTUAL3D\TEXTURES.CPP
C:\USERS\EMANUEL MARQUES\ONEDRIVE\ISEP\3º ANO\LAPR5\LAPR5_1516_GRUPO_20\PROJECT\VISITAVIRTUAL_V2\VISITAVIRTUAL3D\VISITAVIRTUAL3D\DEBUG\VC140.PDB
^C:\USERS\IVOTE\DOCUMENTS\LAPR5\PROJECT\VISITAVIRTUAL_V2\VISITAVIRTUAL3D\VISITAVIRTUAL3D\CAMERA.CPP|C:\USERS\IVOTE\DOCUMENTS\LAPR5\PROJECT\VISITAVIRTUAL_V2\VISITAVIRTUAL3D\VISITAVIRTUAL3D\DRAW.CPP|C:\USERS\IVOTE\DOCUMENTS\LAPR5\PROJECT\VISITAVIRTUAL_V2\VISITAVIRTUAL3D\VISITAVIRTUAL3D\GLM.CPP|C:\USERS\IVOTE\DOCUMENTS\LAPR5\PROJECT\VISITAVIRTUAL_V2\VISITAVIRTUAL3D\VISITAVIRTUAL3D\KEYS.CPP|C:\USERS\IVOTE\DOCUMENTS\LAPR5\PROJECT\VISITAVIRTUAL_V2\VISITAVIRTUAL3D\VISITAVIRTUAL3D\LIGHT.CPP|C:\USERS\IVOTE\DOCUMENTS\LAPR5\PROJECT\VISITAVIRTUAL_V2\VISITAVIRTUAL3D\VISITAVIRTUAL3D\MAIN.CPP|C:\USERS\IVOTE\DOCUMENTS\LAPR5\PROJECT\VISITAVIRTUAL_V2\VISITAVIRTUAL3D\VISITAVIRTUAL3D\MATH.CPP|C:\USERS\IVOTE\DOCUMENTS\LAPR5\PROJECT\VISITAVIRTUAL_V2\VISITAVIRTUAL3D\VISITAVIRTUAL3D\MDLVIEWER.CPP|C:\USERS\IVOTE\DOCUMENTS\LAPR5\PROJECT\VISITAVIRTUAL_V2\VISITAVIRTUAL3D\VISITAVIRTUAL3D\MODEL.CPP|C:\USERS\IVOTE\DOCUMENTS\LAPR5\PROJECT\VISITAVIRTUAL_V2\VISITAVIRTUAL3D\VISITAVIRTUAL3D\OBJECT.CPP|C:\USERS\IVOTE\DOCUMENTS\LAPR5\PROJECT\VISITAVIRTUAL_V2\VISITAVIRTUAL3D\VISITAVIRTUAL3D\POSITION.CPP|C:\USERS\IVOTE\DOCUMENTS\LAPR5\PROJECT\VISITAVIRTUAL_V2\VISITAVIRTUAL3D\VISITAVIRTUAL3D\RAIN.CPP|C:\USERS\IVOTE\DOCUMENTS\LAPR5\PROJECT\VISITAVIRTUAL_V2\VISITAVIRTUAL3D\VISITAVIRTUAL3D\SKYBOX.CPP|C:\USERS\IVOTE\DOCUMENTS\LAPR5\PROJECT\VISITAVIRTUAL_V2\VISITAVIRTUAL3D\VISITAVIRTUAL3D\STATE.CPP|C:\USERS\IVOTE\DOCUMENTS\LAPR5\PROJECT\VISITAVIRTUAL_V2\VISITAVIRTUAL3D\VISITAVIRTUAL3D\STUDIO_RENDER.CPP|C:\USERS\IVOTE\DOCUMENTS\LAPR5\PROJECT\VISITAVIRTUAL_V2\VISITAVIRTUAL3D\VISITAVIRTUAL3D\STUDIO_UTILS.CPP|C:\USERS\IVOTE\DOCUMENTS\LAPR5\PROJECT\VISITAVIRTUAL_V2\VISITAVIRTUAL3D\VISITAVIRTUAL3D\TEXTURES.CPP
C:\USERS\IVOTE\DOCUMENTS\LAPR5\PROJECT\VISITAVIRTUAL_V2\VISITAVIRTUAL3D\VISITAVIRTUAL3D\DEBUG\VC140.PDB
C:\USERS\IVOTE\DOCUMENTS\LAPR5\PROJECT\VISITAVIRTUAL_V2\VISITAVIRTUAL3D\VISITAVIRTUAL3D\DEBUG\VC140.IDB
C:\USERS\IVOTE\DOCUMENTS\LAPR5\PROJECT\VISITAVIRTUAL_V2\VISITAVIRTUAL3D\VISITAVIRTUAL3D\DEBUG\CAMERA.OBJ
C:\USERS\IVOTE\DOCUMENTS\LAPR5\PROJECT\VISITAVIRTUAL_V2\VISITAVIRTUAL3D\VISITAVIRTUAL3D\DEBUG\DRAW.OBJ
C:\USERS\IVOTE\DOCUMENTS\LAPR5\PROJECT\VISITAVIRTUAL_V2\VISITAVIRTUAL3D\VISITAVIRTUAL3D\DEBUG\GLM.OBJ
C:\USERS\IVOTE\DOCUMENTS\LAPR5\PROJECT\VISITAVIRTUAL_V2\VISITAVIRTUAL3D\VISITAVIRTUAL3D\DEBUG\KEYS.OBJ
C:\USERS\IVOTE\DOCUMENTS\LAPR5\PROJECT\VISITAVIRTUAL_V2\VISITAVIRTUAL3D\VISITAVIRTUAL3D\DEBUG\LIGHT.OBJ
C:\USERS\IVOTE\DOCUMENTS\LAPR5\PROJECT\VISITAVIRTUAL_V2\VISITAVIRTUAL3D\VISITAVIRTUAL3D\DEBUG\MAIN.OBJ
C:\USERS\IVOTE\DOCUMENTS\LAPR5\PROJECT\VISITAVIRTUAL_V2\VISITAVIRTUAL3D\VISITAVIRTUAL3D\DEBUG\MATH.OBJ
C:\USERS\IVOTE\DOCUMENTS\LAPR5\PROJECT\VISITAVIRTUAL_V2\VISITAVIRTUAL3D\VISITAVIRTUAL3D\DEBUG\MDLVIEWER.OBJ
C:\USERS\IVOTE\DOCUMENTS\LAPR5\PROJECT\VISITAVIRTUAL_V2\VISITAVIRTUAL3D\VISITAVIRTUAL3D\DEBUG\MODEL.OBJ
C:\USERS\IVOTE\DOCUMENTS\LAPR5\PROJECT\VISITAVIRTUAL_V2\VISITAVIRTUAL3D\VISITAVIRTUAL3D\DEBUG\OBJECT.OBJ
C:\USERS\IVOTE\DOCUMENTS\LAPR5\PROJECT\VISITAVIRTUAL_V2\VISITAVIRTUAL3D\VISITAVIRTUAL3D\DEBUG\POSITION.OBJ
C:\USERS\IVOTE\DOCUMENTS\LAPR5\PROJECT\VISITAVIRTUAL_V2\VISITAVIRTUAL3D\VISITAVIRTUAL3D\DEBUG\RAIN.OBJ
C:\USERS\IVOTE\DOCUMENTS\LAPR5\PROJECT\VISITAVIRTUAL_V2\VISITAVIRTUAL3D\VISITAVIRTUAL3D\DEBUG\SKYBOX.OBJ
C:\USERS\IVOTE\DOCUMENTS\LAPR5\PROJECT\VISITAVIRTUAL_V2\VISITAVIRTUAL3D\VISITAVIRTUAL3D\DEBUG\STATE.OBJ
C:\USERS\IVOTE\DOCUMENTS\LAPR5\PROJECT\VISITAVIRTUAL_V2\VISITAVIRTUAL3D\VISITAVIRTUAL3D\DEBUG\STUDIO_RENDER.OBJ
C:\USERS\IVOTE\DOCUMENTS\LAPR5\PROJECT\VISITAVIRTUAL_V2\VISITAVIRTUAL3D\VISITAVIRTUAL3D\DEBUG\STUDIO_UTILS.OBJ
C:\USERS\IVOTE\DOCUMENTS\LAPR5\PROJECT\VISITAVIRTUAL_V2\VISITAVIRTUAL3D\VISITAVIRTUAL3D\DEBUG\TEXTURES.OBJ
^C:\USERS\IVOTE\DOCUMENTS\LAPR5\PROJECT\VISITAVIRTUAL_V2\VISITAVIRTUAL3D\VISITAVIRTUAL3D\CAMERA.CPP
C:\USERS\IVOTE\DOCUMENTS\LAPR5\PROJECT\VISITAVIRTUAL_V2\VISITAVIRTUAL3D\VISITAVIRTUAL3D\DEBUG\VC140.PDB
^C:\USERS\IVOTE\DOCUMENTS\LAPR5\PROJECT\VISITAVIRTUAL_V2\VISITAVIRTUAL3D\VISITAVIRTUAL3D\DRAW.CPP
C:\USERS\IVOTE\DOCUMENTS\LAPR5\PROJECT\VISITAVIRTUAL_V2\VISITAVIRTUAL3D\VISITAVIRTUAL3D\DEBUG\VC140.PDB
^C:\USERS\IVOTE\DOCUMENTS\LAPR5\PROJECT\VISITAVIRTUAL_V2\VISITAVIRTUAL3D\VISITAVIRTUAL3D\GLM.CPP
C:\USERS\IVOTE\DOCUMENTS\LAPR5\PROJECT\VISITAVIRTUAL_V2\VISITAVIRTUAL3D\VISITAVIRTUAL3D\DEBUG\VC140.PDB
^C:\USERS\IVOTE\DOCUMENTS\LAPR5\PROJECT\VISITAVIRTUAL_V2\VISITAVIRTUAL3D\VISITAVIRTUAL3D\KEYS.CPP
C:\USERS\IVOTE\DOCUMENTS\LAPR5\PROJECT\VISITAVIRTUAL_V2\VISITAVIRTUAL3D\VISITAVIRTUAL3D\DEBUG\VC140.PDB
^C:\USERS\IVOTE\DOCUMENTS\LAPR5\PROJECT\VISITAVIRTUAL_V2\VISITAVIRTUAL3D\VISITAVIRTUAL3D\LIGHT.CPP
C:\USERS\IVOTE\DOCUMENTS\LAPR5\PROJECT\VISITAVIRTUAL_V2\VISITAVIRTUAL3D\VISITAVIRTUAL3D\DEBUG\VC140.PDB
^C:\USERS\IVOTE\DOCUMENTS\LAPR5\PROJECT\VISITAVIRTUAL_V2\VISITAVIRTUAL3D\VISITAVIRTUAL3D\MAIN.CPP
C:\USERS\IVOTE\DOCUMENTS\LAPR5\PROJECT\VISITAVIRTUAL_V2\VISITAVIRTUAL3D\VISITAVIRTUAL3D\DEBUG\VC140.PDB
C:\USERS\IVOTE\DOCUMENTS\LAPR5\PROJECT\VISITAVIRTUAL_V2\VISITAVIRTUAL3D\VISITAVIRTUAL3D\DEBUG\VC140.IDB
C:\USERS\IVOTE\DOCUMENTS\LAPR5\PROJECT\VISITAVIRTUAL_V2\VISITAVIRTUAL3D\VISITAVIRTUAL3D\DEBUG\MAIN.OBJ
^C:\USERS\IVOTE\DOCUMENTS\LAPR5\PROJECT\VISITAVIRTUAL_V2\VISITAVIRTUAL3D\VISITAVIRTUAL3D\MATH.CPP
C:\USERS\IVOTE\DOCUMENTS\LAPR5\PROJECT\VISITAVIRTUAL_V2\VISITAVIRTUAL3D\VISITAVIRTUAL3D\DEBUG\VC140.PDB
^C:\USERS\IVOTE\DOCUMENTS\LAPR5\PROJECT\VISITAVIRTUAL_V2\VISITAVIRTUAL3D\VISITAVIRTUAL3D\MDLVIEWER.CPP
C:\USERS\IVOTE\DOCUMENTS\LAPR5\PROJECT\VISITAVIRTUAL_V2\VISITAVIRTUAL3D\VISITAVIRTUAL3D\DEBUG\VC140.PDB
^C:\USERS\IVOTE\DOCUMENTS\LAPR5\PROJECT\VISITAVIRTUAL_V2\VISITAVIRTUAL3D\VISITAVIRTUAL3D\MODEL.CPP
C:\USERS\IVOTE\DOCUMENTS\LAPR5\PROJECT\VISITAVIRTUAL_V2\VISITAVIRTUAL3D\VISITAVIRTUAL3D\DEBUG\VC140.PDB
^C:\USERS\IVOTE\DOCUMENTS\LAPR5\PROJECT\VISITAVIRTUAL_V2\VISITAVIRTUAL3D\VISITAVIRTUAL3D\OBJECT.CPP
C:\USERS\IVOTE\DOCUMENTS\LAPR5\PROJECT\VISITAVIRTUAL_V2\VISITAVIRTUAL3D\VISITAVIRTUAL3D\DEBUG\VC140.PDB
^C:\USERS\IVOTE\DOCUMENTS\LAPR5\PROJECT\VISITAVIRTUAL_V2\VISITAVIRTUAL3D\VISITAVIRTUAL3D\POSITION.CPP
C:\USERS\IVOTE\DOCUMENTS\LAPR5\PROJECT\VISITAVIRTUAL_V2\VISITAVIRTUAL3D\VISITAVIRTUAL3D\DEBUG\VC140.PDB
^C:\USERS\IVOTE\DOCUMENTS\LAPR5\PROJECT\VISITAVIRTUAL_V2\VISITAVIRTUAL3D\VISITAVIRTUAL3D\RAIN.CPP
C:\USERS\IVOTE\DOCUMENTS\LAPR5\PROJECT\VISITAVIRTUAL_V2\VISITAVIRTUAL3D\VISITAVIRTUAL3D\DEBUG\VC140.PDB
^C:\USERS\IVOTE\DOCUMENTS\LAPR5\PROJECT\VISITAVIRTUAL_V2\VISITAVIRTUAL3D\VISITAVIRTUAL3D\SKYBOX.CPP
C:\USERS\IVOTE\DOCUMENTS\LAPR5\PROJECT\VISITAVIRTUAL_V2\VISITAVIRTUAL3D\VISITAVIRTUAL3D\DEBUG\VC140.PDB
^C:\USERS\IVOTE\DOCUMENTS\LAPR5\PROJECT\VISITAVIRTUAL_V2\VISITAVIRTUAL3D\VISITAVIRTUAL3D\STATE.CPP
C:\USERS\IVOTE\DOCUMENTS\LAPR5\PROJECT\VISITAVIRTUAL_V2\VISITAVIRTUAL3D\VISITAVIRTUAL3D\DEBUG\VC140.PDB
^C:\USERS\IVOTE\DOCUMENTS\LAPR5\PROJECT\VISITAVIRTUAL_V2\VISITAVIRTUAL3D\VISITAVIRTUAL3D\STUDIO_RENDER.CPP
C:\USERS\IVOTE\DOCUMENTS\LAPR5\PROJECT\VISITAVIRTUAL_V2\VISITAVIRTUAL3D\VISITAVIRTUAL3D\DEBUG\VC140.PDB
^C:\USERS\IVOTE\DOCUMENTS\LAPR5\PROJECT\VISITAVIRTUAL_V2\VISITAVIRTUAL3D\VISITAVIRTUAL3D\STUDIO_UTILS.CPP
C:\USERS\IVOTE\DOCUMENTS\LAPR5\PROJECT\VISITAVIRTUAL_V2\VISITAVIRTUAL3D\VISITAVIRTUAL3D\DEBUG\VC140.PDB
^C:\USERS\IVOTE\DOCUMENTS\LAPR5\PROJECT\VISITAVIRTUAL_V2\VISITAVIRTUAL3D\VISITAVIRTUAL3D\TEXTURES.CPP
C:\USERS\IVOTE\DOCUMENTS\LAPR5\PROJECT\VISITAVIRTUAL_V2\VISITAVIRTUAL3D\VISITAVIRTUAL3D\DEBUG\VC140.PDB
^C:\USERS\IVOTE\DOCUMENTS\LAPR5\PROJECT\VISITAVIRTUAL_V2\VISITAVIRTUAL3D\VISITAVIRTUAL3D\READJPEG.C
C:\USERS\IVOTE\DOCUMENTS\LAPR5\PROJECT\VISITAVIRTUAL_V2\VISITAVIRTUAL3D\VISITAVIRTUAL3D\DEBUG\VC140.PDB
C:\USERS\IVOTE\DOCUMENTS\LAPR5\PROJECT\VISITAVIRTUAL_V2\VISITAVIRTUAL3D\VISITAVIRTUAL3D\DEBUG\VC140.IDB
C:\USERS\IVOTE\DOCUMENTS\LAPR5\PROJECT\VISITAVIRTUAL_V2\VISITAVIRTUAL3D\VISITAVIRTUAL3D\DEBUG\READJPEG.OBJ
