^C:\USERS\IVOTE\DOCUMENTS\LAPR5\PROJECT\VISITAVIRTUAL_V2\VISITAVIRTUAL3D\VISITAVIRTUAL3D\DEBUG\CAMERA.OBJ|C:\USERS\IVOTE\DOCUMENTS\LAPR5\PROJECT\VISITAVIRTUAL_V2\VISITAVIRTUAL3D\VISITAVIRTUAL3D\DEBUG\DRAW.OBJ|C:\USERS\IVOTE\DOCUMENTS\LAPR5\PROJECT\VISITAVIRTUAL_V2\VISITAVIRTUAL3D\VISITAVIRTUAL3D\DEBUG\GLM.OBJ|C:\USERS\IVOTE\DOCUMENTS\LAPR5\PROJECT\VISITAVIRTUAL_V2\VISITAVIRTUAL3D\VISITAVIRTUAL3D\DEBUG\KEYS.OBJ|C:\USERS\IVOTE\DOCUMENTS\LAPR5\PROJECT\VISITAVIRTUAL_V2\VISITAVIRTUAL3D\VISITAVIRTUAL3D\DEBUG\LIGHT.OBJ|C:\USERS\IVOTE\DOCUMENTS\LAPR5\PROJECT\VISITAVIRTUAL_V2\VISITAVIRTUAL3D\VISITAVIRTUAL3D\DEBUG\MAIN.OBJ|C:\USERS\IVOTE\DOCUMENTS\LAPR5\PROJECT\VISITAVIRTUAL_V2\VISITAVIRTUAL3D\VISITAVIRTUAL3D\DEBUG\MATH.OBJ|C:\USERS\IVOTE\DOCUMENTS\LAPR5\PROJECT\VISITAVIRTUAL_V2\VISITAVIRTUAL3D\VISITAVIRTUAL3D\DEBUG\MDLVIEWER.OBJ|C:\USERS\IVOTE\DOCUMENTS\LAPR5\PROJECT\VISITAVIRTUAL_V2\VISITAVIRTUAL3D\VISITAVIRTUAL3D\DEBUG\MODEL.OBJ|C:\USERS\IVOTE\DOCUMENTS\LAPR5\PROJECT\VISITAVIRTUAL_V2\VISITAVIRTUAL3D\VISITAVIRTUAL3D\DEBUG\OBJECT.OBJ|C:\USERS\IVOTE\DOCUMENTS\LAPR5\PROJECT\VISITAVIRTUAL_V2\VISITAVIRTUAL3D\VISITAVIRTUAL3D\DEBUG\POSITION.OBJ|C:\USERS\IVOTE\DOCUMENTS\LAPR5\PROJECT\VISITAVIRTUAL_V2\VISITAVIRTUAL3D\VISITAVIRTUAL3D\DEBUG\RAIN.OBJ|C:\USERS\IVOTE\DOCUMENTS\LAPR5\PROJECT\VISITAVIRTUAL_V2\VISITAVIRTUAL3D\VISITAVIRTUAL3D\DEBUG\READJPEG.OBJ|C:\USERS\IVOTE\DOCUMENTS\LAPR5\PROJECT\VISITAVIRTUAL_V2\VISITAVIRTUAL3D\VISITAVIRTUAL3D\DEBUG\SKYBOX.OBJ|C:\USERS\IVOTE\DOCUMENTS\LAPR5\PROJECT\VISITAVIRTUAL_V2\VISITAVIRTUAL3D\VISITAVIRTUAL3D\DEBUG\STATE.OBJ|C:\USERS\IVOTE\DOCUMENTS\LAPR5\PROJECT\VISITAVIRTUAL_V2\VISITAVIRTUAL3D\VISITAVIRTUAL3D\DEBUG\STUDIO_RENDER.OBJ|C:\USERS\IVOTE\DOCUMENTS\LAPR5\PROJECT\VISITAVIRTUAL_V2\VISITAVIRTUAL3D\VISITAVIRTUAL3D\DEBUG\STUDIO_UTILS.OBJ|C:\USERS\IVOTE\DOCUMENTS\LAPR5\PROJECT\VISITAVIRTUAL_V2\VISITAVIRTUAL3D\VISITAVIRTUAL3D\DEBUG\TEXTURES.OBJ
C:\WINDOWS\GLOBALIZATION\SORTING\SORTDEFAULT.NLS
C:\PROGRAM FILES (X86)\MICROSOFT VISUAL STUDIO 14.0\VC\LIB\LEGACY_STDIO_DEFINITIONS.LIB
C:\PROGRAM FILES (X86)\FREEALUT-1.1.0-BIN\LIB\ALUT.LIB
C:\PROGRAM FILES (X86)\OPENAL 1.1 SDK\LIBS\WIN32\OPENAL32.LIB
C:\PROGRAM FILES (X86)\WINDOWS KITS\8.1\LIB\WINV6.3\UM\X86\KERNEL32.LIB
C:\PROGRAM FILES (X86)\WINDOWS KITS\8.1\LIB\WINV6.3\UM\X86\USER32.LIB
C:\PROGRAM FILES (X86)\WINDOWS KITS\8.1\LIB\WINV6.3\UM\X86\GDI32.LIB
C:\PROGRAM FILES (X86)\WINDOWS KITS\8.1\LIB\WINV6.3\UM\X86\WINSPOOL.LIB
C:\PROGRAM FILES (X86)\WINDOWS KITS\8.1\LIB\WINV6.3\UM\X86\COMDLG32.LIB
C:\PROGRAM FILES (X86)\WINDOWS KITS\8.1\LIB\WINV6.3\UM\X86\ADVAPI32.LIB
C:\PROGRAM FILES (X86)\WINDOWS KITS\8.1\LIB\WINV6.3\UM\X86\SHELL32.LIB
C:\PROGRAM FILES (X86)\WINDOWS KITS\8.1\LIB\WINV6.3\UM\X86\OLE32.LIB
C:\PROGRAM FILES (X86)\WINDOWS KITS\8.1\LIB\WINV6.3\UM\X86\OLEAUT32.LIB
C:\PROGRAM FILES (X86)\WINDOWS KITS\8.1\LIB\WINV6.3\UM\X86\UUID.LIB
C:\PROGRAM FILES (X86)\WINDOWS KITS\8.1\LIB\WINV6.3\UM\X86\ODBC32.LIB
C:\PROGRAM FILES (X86)\WINDOWS KITS\8.1\LIB\WINV6.3\UM\X86\ODBCCP32.LIB
C:\USERS\IVOTE\DOCUMENTS\LAPR5\PROJECT\VISITAVIRTUAL_V2\VISITAVIRTUAL3D\VISITAVIRTUAL3D\DEBUG\CAMERA.OBJ
C:\USERS\IVOTE\DOCUMENTS\LAPR5\PROJECT\VISITAVIRTUAL_V2\VISITAVIRTUAL3D\VISITAVIRTUAL3D\DEBUG\DRAW.OBJ
C:\USERS\IVOTE\DOCUMENTS\LAPR5\PROJECT\VISITAVIRTUAL_V2\VISITAVIRTUAL3D\VISITAVIRTUAL3D\DEBUG\GLM.OBJ
C:\USERS\IVOTE\DOCUMENTS\LAPR5\PROJECT\VISITAVIRTUAL_V2\VISITAVIRTUAL3D\VISITAVIRTUAL3D\DEBUG\KEYS.OBJ
C:\USERS\IVOTE\DOCUMENTS\LAPR5\PROJECT\VISITAVIRTUAL_V2\VISITAVIRTUAL3D\VISITAVIRTUAL3D\DEBUG\LIGHT.OBJ
C:\USERS\IVOTE\DOCUMENTS\LAPR5\PROJECT\VISITAVIRTUAL_V2\VISITAVIRTUAL3D\VISITAVIRTUAL3D\DEBUG\MAIN.OBJ
C:\USERS\IVOTE\DOCUMENTS\LAPR5\PROJECT\VISITAVIRTUAL_V2\VISITAVIRTUAL3D\VISITAVIRTUAL3D\DEBUG\MATH.OBJ
C:\USERS\IVOTE\DOCUMENTS\LAPR5\PROJECT\VISITAVIRTUAL_V2\VISITAVIRTUAL3D\VISITAVIRTUAL3D\DEBUG\MDLVIEWER.OBJ
C:\USERS\IVOTE\DOCUMENTS\LAPR5\PROJECT\VISITAVIRTUAL_V2\VISITAVIRTUAL3D\VISITAVIRTUAL3D\DEBUG\MODEL.OBJ
C:\USERS\IVOTE\DOCUMENTS\LAPR5\PROJECT\VISITAVIRTUAL_V2\VISITAVIRTUAL3D\VISITAVIRTUAL3D\DEBUG\OBJECT.OBJ
C:\USERS\IVOTE\DOCUMENTS\LAPR5\PROJECT\VISITAVIRTUAL_V2\VISITAVIRTUAL3D\VISITAVIRTUAL3D\DEBUG\POSITION.OBJ
C:\USERS\IVOTE\DOCUMENTS\LAPR5\PROJECT\VISITAVIRTUAL_V2\VISITAVIRTUAL3D\VISITAVIRTUAL3D\DEBUG\RAIN.OBJ
C:\USERS\IVOTE\DOCUMENTS\LAPR5\PROJECT\VISITAVIRTUAL_V2\VISITAVIRTUAL3D\VISITAVIRTUAL3D\DEBUG\READJPEG.OBJ
C:\USERS\IVOTE\DOCUMENTS\LAPR5\PROJECT\VISITAVIRTUAL_V2\VISITAVIRTUAL3D\VISITAVIRTUAL3D\DEBUG\SKYBOX.OBJ
C:\USERS\IVOTE\DOCUMENTS\LAPR5\PROJECT\VISITAVIRTUAL_V2\VISITAVIRTUAL3D\VISITAVIRTUAL3D\DEBUG\STATE.OBJ
C:\USERS\IVOTE\DOCUMENTS\LAPR5\PROJECT\VISITAVIRTUAL_V2\VISITAVIRTUAL3D\VISITAVIRTUAL3D\DEBUG\STUDIO_RENDER.OBJ
C:\USERS\IVOTE\DOCUMENTS\LAPR5\PROJECT\VISITAVIRTUAL_V2\VISITAVIRTUAL3D\VISITAVIRTUAL3D\DEBUG\STUDIO_UTILS.OBJ
C:\USERS\IVOTE\DOCUMENTS\LAPR5\PROJECT\VISITAVIRTUAL_V2\VISITAVIRTUAL3D\VISITAVIRTUAL3D\DEBUG\TEXTURES.OBJ
C:\WINDOWS\SYSTEM32\TZRES.DLL
C:\PROGRAM FILES (X86)\WINDOWS KITS\8.1\LIB\WINV6.3\UM\X86\WINMM.LIB
C:\PROGRAM FILES (X86)\WINDOWS KITS\8.1\LIB\WINV6.3\UM\X86\OPENGL32.LIB
C:\PROGRAM FILES (X86)\WINDOWS KITS\8.1\LIB\WINV6.3\UM\X86\GLU32.LIB
C:\GLUT\GLUT32.LIB
C:\PROGRAM FILES (X86)\MICROSOFT VISUAL STUDIO 14.0\VC\LIB\LIBCMTD.LIB
C:\PROGRAM FILES (X86)\MICROSOFT VISUAL STUDIO 14.0\VC\LIB\OLDNAMES.LIB
C:\PROGRAM FILES (X86)\MICROSOFT VISUAL STUDIO 14.0\VC\LIB\LIBCPMTD.LIB
C:\GLAUX\GLAUX.LIB
C:\GLAUX\LIBJPEG.LIB
C:\PROGRAM FILES (X86)\MICROSOFT VISUAL STUDIO 14.0\VC\LIB\LIBVCRUNTIMED.LIB
C:\PROGRAM FILES (X86)\WINDOWS KITS\10\LIB\10.0.10150.0\UCRT\X86\LIBUCRTD.LIB
C:\PROGRAM FILES (X86)\MICROSOFT VISUAL STUDIO 14.0\VC\LIB\LEGACY_STDIO_WIDE_SPECIFIERS.LIB
