^C:\USERS\EMANUEL MARQUES\ONEDRIVE\ISEP\3º ANO\LAPR5\PROJETO IMOBILIARIA\PROJECT\VISITAVIRTUAL_V2\VISITAVIRTUAL3D\VISITAVIRTUAL3D\CAMERA.CPP
/c /ZI /nologo /W3 /WX- /sdl /Od /D _MBCS /Gm /EHsc /RTC1 /MDd /GS /fp:precise /Zc:wchar_t /Zc:forScope /Zc:inline /Fo"X64\DEBUG\\" /Fd"X64\DEBUG\VC140.PDB" /Gd /TP C:\USERS\EMANUEL MARQUES\ONEDRIVE\ISEP\3º ANO\LAPR5\PROJETO IMOBILIARIA\PROJECT\VISITAVIRTUAL_V2\VISITAVIRTUAL3D\VISITAVIRTUAL3D\CAMERA.CPP
^C:\USERS\EMANUEL MARQUES\ONEDRIVE\ISEP\3º ANO\LAPR5\PROJETO IMOBILIARIA\PROJECT\VISITAVIRTUAL_V2\VISITAVIRTUAL3D\VISITAVIRTUAL3D\DEGRAU.CPP
/c /ZI /nologo /W3 /WX- /sdl /Od /D _MBCS /Gm /EHsc /RTC1 /MDd /GS /fp:precise /Zc:wchar_t /Zc:forScope /Zc:inline /Fo"X64\DEBUG\\" /Fd"X64\DEBUG\VC140.PDB" /Gd /TP C:\USERS\EMANUEL MARQUES\ONEDRIVE\ISEP\3º ANO\LAPR5\PROJETO IMOBILIARIA\PROJECT\VISITAVIRTUAL_V2\VISITAVIRTUAL3D\VISITAVIRTUAL3D\DEGRAU.CPP
^C:\USERS\EMANUEL MARQUES\ONEDRIVE\ISEP\3º ANO\LAPR5\PROJETO IMOBILIARIA\PROJECT\VISITAVIRTUAL_V2\VISITAVIRTUAL3D\VISITAVIRTUAL3D\DRAW.CPP
/c /ZI /nologo /W3 /WX- /sdl /Od /D _MBCS /Gm /EHsc /RTC1 /MDd /GS /fp:precise /Zc:wchar_t /Zc:forScope /Zc:inline /Fo"X64\DEBUG\\" /Fd"X64\DEBUG\VC140.PDB" /Gd /TP C:\USERS\EMANUEL MARQUES\ONEDRIVE\ISEP\3º ANO\LAPR5\PROJETO IMOBILIARIA\PROJECT\VISITAVIRTUAL_V2\VISITAVIRTUAL3D\VISITAVIRTUAL3D\DRAW.CPP
^C:\USERS\EMANUEL MARQUES\ONEDRIVE\ISEP\3º ANO\LAPR5\PROJETO IMOBILIARIA\PROJECT\VISITAVIRTUAL_V2\VISITAVIRTUAL3D\VISITAVIRTUAL3D\ESCADA.CPP
/c /ZI /nologo /W3 /WX- /sdl /Od /D _MBCS /Gm /EHsc /RTC1 /MDd /GS /fp:precise /Zc:wchar_t /Zc:forScope /Zc:inline /Fo"X64\DEBUG\\" /Fd"X64\DEBUG\VC140.PDB" /Gd /TP C:\USERS\EMANUEL MARQUES\ONEDRIVE\ISEP\3º ANO\LAPR5\PROJETO IMOBILIARIA\PROJECT\VISITAVIRTUAL_V2\VISITAVIRTUAL3D\VISITAVIRTUAL3D\ESCADA.CPP
^C:\USERS\EMANUEL MARQUES\ONEDRIVE\ISEP\3º ANO\LAPR5\PROJETO IMOBILIARIA\PROJECT\VISITAVIRTUAL_V2\VISITAVIRTUAL3D\VISITAVIRTUAL3D\KEYS.CPP
/c /ZI /nologo /W3 /WX- /sdl /Od /D _MBCS /Gm /EHsc /RTC1 /MDd /GS /fp:precise /Zc:wchar_t /Zc:forScope /Zc:inline /Fo"X64\DEBUG\\" /Fd"X64\DEBUG\VC140.PDB" /Gd /TP C:\USERS\EMANUEL MARQUES\ONEDRIVE\ISEP\3º ANO\LAPR5\PROJETO IMOBILIARIA\PROJECT\VISITAVIRTUAL_V2\VISITAVIRTUAL3D\VISITAVIRTUAL3D\KEYS.CPP
^C:\USERS\EMANUEL MARQUES\ONEDRIVE\ISEP\3º ANO\LAPR5\PROJETO IMOBILIARIA\PROJECT\VISITAVIRTUAL_V2\VISITAVIRTUAL3D\VISITAVIRTUAL3D\LIGHT.CPP
/c /ZI /nologo /W3 /WX- /sdl /Od /D _MBCS /Gm /EHsc /RTC1 /MDd /GS /fp:precise /Zc:wchar_t /Zc:forScope /Zc:inline /Fo"X64\DEBUG\\" /Fd"X64\DEBUG\VC140.PDB" /Gd /TP C:\USERS\EMANUEL MARQUES\ONEDRIVE\ISEP\3º ANO\LAPR5\PROJETO IMOBILIARIA\PROJECT\VISITAVIRTUAL_V2\VISITAVIRTUAL3D\VISITAVIRTUAL3D\LIGHT.CPP
^C:\USERS\EMANUEL MARQUES\ONEDRIVE\ISEP\3º ANO\LAPR5\PROJETO IMOBILIARIA\PROJECT\VISITAVIRTUAL_V2\VISITAVIRTUAL3D\VISITAVIRTUAL3D\MAIN.CPP
/c /ZI /nologo /W3 /WX- /sdl /Od /D _MBCS /Gm /EHsc /RTC1 /MDd /GS /fp:precise /Zc:wchar_t /Zc:forScope /Zc:inline /Fo"X64\DEBUG\\" /Fd"X64\DEBUG\VC140.PDB" /Gd /TP C:\USERS\EMANUEL MARQUES\ONEDRIVE\ISEP\3º ANO\LAPR5\PROJETO IMOBILIARIA\PROJECT\VISITAVIRTUAL_V2\VISITAVIRTUAL3D\VISITAVIRTUAL3D\MAIN.CPP
^C:\USERS\EMANUEL MARQUES\ONEDRIVE\ISEP\3º ANO\LAPR5\PROJETO IMOBILIARIA\PROJECT\VISITAVIRTUAL_V2\VISITAVIRTUAL3D\VISITAVIRTUAL3D\MATH.CPP
/c /ZI /nologo /W3 /WX- /sdl /Od /D _MBCS /Gm /EHsc /RTC1 /MDd /GS /fp:precise /Zc:wchar_t /Zc:forScope /Zc:inline /Fo"X64\DEBUG\\" /Fd"X64\DEBUG\VC140.PDB" /Gd /TP C:\USERS\EMANUEL MARQUES\ONEDRIVE\ISEP\3º ANO\LAPR5\PROJETO IMOBILIARIA\PROJECT\VISITAVIRTUAL_V2\VISITAVIRTUAL3D\VISITAVIRTUAL3D\MATH.CPP
^C:\USERS\EMANUEL MARQUES\ONEDRIVE\ISEP\3º ANO\LAPR5\PROJETO IMOBILIARIA\PROJECT\VISITAVIRTUAL_V2\VISITAVIRTUAL3D\VISITAVIRTUAL3D\MDLVIEWER.CPP
/c /ZI /nologo /W3 /WX- /sdl /Od /D _MBCS /Gm /EHsc /RTC1 /MDd /GS /fp:precise /Zc:wchar_t /Zc:forScope /Zc:inline /Fo"X64\DEBUG\\" /Fd"X64\DEBUG\VC140.PDB" /Gd /TP C:\USERS\EMANUEL MARQUES\ONEDRIVE\ISEP\3º ANO\LAPR5\PROJETO IMOBILIARIA\PROJECT\VISITAVIRTUAL_V2\VISITAVIRTUAL3D\VISITAVIRTUAL3D\MDLVIEWER.CPP
^C:\USERS\EMANUEL MARQUES\ONEDRIVE\ISEP\3º ANO\LAPR5\PROJETO IMOBILIARIA\PROJECT\VISITAVIRTUAL_V2\VISITAVIRTUAL3D\VISITAVIRTUAL3D\MODEL.CPP
/c /ZI /nologo /W3 /WX- /sdl /Od /D _MBCS /Gm /EHsc /RTC1 /MDd /GS /fp:precise /Zc:wchar_t /Zc:forScope /Zc:inline /Fo"X64\DEBUG\\" /Fd"X64\DEBUG\VC140.PDB" /Gd /TP C:\USERS\EMANUEL MARQUES\ONEDRIVE\ISEP\3º ANO\LAPR5\PROJETO IMOBILIARIA\PROJECT\VISITAVIRTUAL_V2\VISITAVIRTUAL3D\VISITAVIRTUAL3D\MODEL.CPP
^C:\USERS\EMANUEL MARQUES\ONEDRIVE\ISEP\3º ANO\LAPR5\PROJETO IMOBILIARIA\PROJECT\VISITAVIRTUAL_V2\VISITAVIRTUAL3D\VISITAVIRTUAL3D\OBJECT.CPP
/c /ZI /nologo /W3 /WX- /sdl /Od /D _MBCS /Gm /EHsc /RTC1 /MDd /GS /fp:precise /Zc:wchar_t /Zc:forScope /Zc:inline /Fo"X64\DEBUG\\" /Fd"X64\DEBUG\VC140.PDB" /Gd /TP C:\USERS\EMANUEL MARQUES\ONEDRIVE\ISEP\3º ANO\LAPR5\PROJETO IMOBILIARIA\PROJECT\VISITAVIRTUAL_V2\VISITAVIRTUAL3D\VISITAVIRTUAL3D\OBJECT.CPP
^C:\USERS\EMANUEL MARQUES\ONEDRIVE\ISEP\3º ANO\LAPR5\PROJETO IMOBILIARIA\PROJECT\VISITAVIRTUAL_V2\VISITAVIRTUAL3D\VISITAVIRTUAL3D\POSITION.CPP
/c /ZI /nologo /W3 /WX- /sdl /Od /D _MBCS /Gm /EHsc /RTC1 /MDd /GS /fp:precise /Zc:wchar_t /Zc:forScope /Zc:inline /Fo"X64\DEBUG\\" /Fd"X64\DEBUG\VC140.PDB" /Gd /TP C:\USERS\EMANUEL MARQUES\ONEDRIVE\ISEP\3º ANO\LAPR5\PROJETO IMOBILIARIA\PROJECT\VISITAVIRTUAL_V2\VISITAVIRTUAL3D\VISITAVIRTUAL3D\POSITION.CPP
^C:\USERS\EMANUEL MARQUES\ONEDRIVE\ISEP\3º ANO\LAPR5\PROJETO IMOBILIARIA\PROJECT\VISITAVIRTUAL_V2\VISITAVIRTUAL3D\VISITAVIRTUAL3D\STATE.CPP
/c /ZI /nologo /W3 /WX- /sdl /Od /D _MBCS /Gm /EHsc /RTC1 /MDd /GS /fp:precise /Zc:wchar_t /Zc:forScope /Zc:inline /Fo"X64\DEBUG\\" /Fd"X64\DEBUG\VC140.PDB" /Gd /TP C:\USERS\EMANUEL MARQUES\ONEDRIVE\ISEP\3º ANO\LAPR5\PROJETO IMOBILIARIA\PROJECT\VISITAVIRTUAL_V2\VISITAVIRTUAL3D\VISITAVIRTUAL3D\STATE.CPP
^C:\USERS\EMANUEL MARQUES\ONEDRIVE\ISEP\3º ANO\LAPR5\PROJETO IMOBILIARIA\PROJECT\VISITAVIRTUAL_V2\VISITAVIRTUAL3D\VISITAVIRTUAL3D\STUDIO_RENDER.CPP
/c /ZI /nologo /W3 /WX- /sdl /Od /D _MBCS /Gm /EHsc /RTC1 /MDd /GS /fp:precise /Zc:wchar_t /Zc:forScope /Zc:inline /Fo"X64\DEBUG\\" /Fd"X64\DEBUG\VC140.PDB" /Gd /TP C:\USERS\EMANUEL MARQUES\ONEDRIVE\ISEP\3º ANO\LAPR5\PROJETO IMOBILIARIA\PROJECT\VISITAVIRTUAL_V2\VISITAVIRTUAL3D\VISITAVIRTUAL3D\STUDIO_RENDER.CPP
^C:\USERS\EMANUEL MARQUES\ONEDRIVE\ISEP\3º ANO\LAPR5\PROJETO IMOBILIARIA\PROJECT\VISITAVIRTUAL_V2\VISITAVIRTUAL3D\VISITAVIRTUAL3D\STUDIO_UTILS.CPP
/c /ZI /nologo /W3 /WX- /sdl /Od /D _MBCS /Gm /EHsc /RTC1 /MDd /GS /fp:precise /Zc:wchar_t /Zc:forScope /Zc:inline /Fo"X64\DEBUG\\" /Fd"X64\DEBUG\VC140.PDB" /Gd /TP C:\USERS\EMANUEL MARQUES\ONEDRIVE\ISEP\3º ANO\LAPR5\PROJETO IMOBILIARIA\PROJECT\VISITAVIRTUAL_V2\VISITAVIRTUAL3D\VISITAVIRTUAL3D\STUDIO_UTILS.CPP
^C:\USERS\EMANUEL MARQUES\ONEDRIVE\ISEP\3º ANO\LAPR5\PROJETO IMOBILIARIA\PROJECT\VISITAVIRTUAL_V2\VISITAVIRTUAL3D\VISITAVIRTUAL3D\TEXTURES.CPP
/c /ZI /nologo /W3 /WX- /sdl /Od /D _MBCS /Gm /EHsc /RTC1 /MDd /GS /fp:precise /Zc:wchar_t /Zc:forScope /Zc:inline /Fo"X64\DEBUG\\" /Fd"X64\DEBUG\VC140.PDB" /Gd /TP C:\USERS\EMANUEL MARQUES\ONEDRIVE\ISEP\3º ANO\LAPR5\PROJETO IMOBILIARIA\PROJECT\VISITAVIRTUAL_V2\VISITAVIRTUAL3D\VISITAVIRTUAL3D\TEXTURES.CPP
^C:\USERS\IVOTE\DOCUMENTS\LAPR5\PROJECT\VISITAVIRTUAL_V2\VISITAVIRTUAL3D\VISITAVIRTUAL3D\CAMERA.CPP
/c /I"C:\PROGRAM FILES (X86)\OPENAL 1.1 SDK\INCLUDE" /I"C:\PROGRAM FILES (X86)\FREEALUT-1.1.0-BIN\INCLUDE" /ZI /nologo /W3 /WX- /sdl /Od /D _CRT_SECURE_NO_DEPRECATE /Gm /EHsc /RTC1 /MTd /GS /fp:precise /Zc:wchar_t /Zc:forScope /Zc:inline /Fo"X64\DEBUG\\" /Fd"X64\DEBUG\VC140.PDB" /Gd /TP C:\USERS\IVOTE\DOCUMENTS\LAPR5\PROJECT\VISITAVIRTUAL_V2\VISITAVIRTUAL3D\VISITAVIRTUAL3D\CAMERA.CPP
^C:\USERS\IVOTE\DOCUMENTS\LAPR5\PROJECT\VISITAVIRTUAL_V2\VISITAVIRTUAL3D\VISITAVIRTUAL3D\DEGRAU.CPP
/c /I"C:\PROGRAM FILES (X86)\OPENAL 1.1 SDK\INCLUDE" /I"C:\PROGRAM FILES (X86)\FREEALUT-1.1.0-BIN\INCLUDE" /ZI /nologo /W3 /WX- /sdl /Od /D _CRT_SECURE_NO_DEPRECATE /Gm /EHsc /RTC1 /MTd /GS /fp:precise /Zc:wchar_t /Zc:forScope /Zc:inline /Fo"X64\DEBUG\\" /Fd"X64\DEBUG\VC140.PDB" /Gd /TP C:\USERS\IVOTE\DOCUMENTS\LAPR5\PROJECT\VISITAVIRTUAL_V2\VISITAVIRTUAL3D\VISITAVIRTUAL3D\DEGRAU.CPP
^C:\USERS\IVOTE\DOCUMENTS\LAPR5\PROJECT\VISITAVIRTUAL_V2\VISITAVIRTUAL3D\VISITAVIRTUAL3D\DRAW.CPP
/c /I"C:\PROGRAM FILES (X86)\OPENAL 1.1 SDK\INCLUDE" /I"C:\PROGRAM FILES (X86)\FREEALUT-1.1.0-BIN\INCLUDE" /ZI /nologo /W3 /WX- /sdl /Od /D _CRT_SECURE_NO_DEPRECATE /Gm /EHsc /RTC1 /MTd /GS /fp:precise /Zc:wchar_t /Zc:forScope /Zc:inline /Fo"X64\DEBUG\\" /Fd"X64\DEBUG\VC140.PDB" /Gd /TP C:\USERS\IVOTE\DOCUMENTS\LAPR5\PROJECT\VISITAVIRTUAL_V2\VISITAVIRTUAL3D\VISITAVIRTUAL3D\DRAW.CPP
^C:\USERS\IVOTE\DOCUMENTS\LAPR5\PROJECT\VISITAVIRTUAL_V2\VISITAVIRTUAL3D\VISITAVIRTUAL3D\ESCADA.CPP
/c /I"C:\PROGRAM FILES (X86)\OPENAL 1.1 SDK\INCLUDE" /I"C:\PROGRAM FILES (X86)\FREEALUT-1.1.0-BIN\INCLUDE" /ZI /nologo /W3 /WX- /sdl /Od /D _CRT_SECURE_NO_DEPRECATE /Gm /EHsc /RTC1 /MTd /GS /fp:precise /Zc:wchar_t /Zc:forScope /Zc:inline /Fo"X64\DEBUG\\" /Fd"X64\DEBUG\VC140.PDB" /Gd /TP C:\USERS\IVOTE\DOCUMENTS\LAPR5\PROJECT\VISITAVIRTUAL_V2\VISITAVIRTUAL3D\VISITAVIRTUAL3D\ESCADA.CPP
^C:\USERS\IVOTE\DOCUMENTS\LAPR5\PROJECT\VISITAVIRTUAL_V2\VISITAVIRTUAL3D\VISITAVIRTUAL3D\GLM.CPP
/c /I"C:\PROGRAM FILES (X86)\OPENAL 1.1 SDK\INCLUDE" /I"C:\PROGRAM FILES (X86)\FREEALUT-1.1.0-BIN\INCLUDE" /ZI /nologo /W3 /WX- /sdl /Od /D _CRT_SECURE_NO_DEPRECATE /Gm /EHsc /RTC1 /MTd /GS /fp:precise /Zc:wchar_t /Zc:forScope /Zc:inline /Fo"X64\DEBUG\\" /Fd"X64\DEBUG\VC140.PDB" /Gd /TP C:\USERS\IVOTE\DOCUMENTS\LAPR5\PROJECT\VISITAVIRTUAL_V2\VISITAVIRTUAL3D\VISITAVIRTUAL3D\GLM.CPP
^C:\USERS\IVOTE\DOCUMENTS\LAPR5\PROJECT\VISITAVIRTUAL_V2\VISITAVIRTUAL3D\VISITAVIRTUAL3D\KEYS.CPP
/c /I"C:\PROGRAM FILES (X86)\OPENAL 1.1 SDK\INCLUDE" /I"C:\PROGRAM FILES (X86)\FREEALUT-1.1.0-BIN\INCLUDE" /ZI /nologo /W3 /WX- /sdl /Od /D _CRT_SECURE_NO_DEPRECATE /Gm /EHsc /RTC1 /MTd /GS /fp:precise /Zc:wchar_t /Zc:forScope /Zc:inline /Fo"X64\DEBUG\\" /Fd"X64\DEBUG\VC140.PDB" /Gd /TP C:\USERS\IVOTE\DOCUMENTS\LAPR5\PROJECT\VISITAVIRTUAL_V2\VISITAVIRTUAL3D\VISITAVIRTUAL3D\KEYS.CPP
^C:\USERS\IVOTE\DOCUMENTS\LAPR5\PROJECT\VISITAVIRTUAL_V2\VISITAVIRTUAL3D\VISITAVIRTUAL3D\LIGHT.CPP
/c /I"C:\PROGRAM FILES (X86)\OPENAL 1.1 SDK\INCLUDE" /I"C:\PROGRAM FILES (X86)\FREEALUT-1.1.0-BIN\INCLUDE" /ZI /nologo /W3 /WX- /sdl /Od /D _CRT_SECURE_NO_DEPRECATE /Gm /EHsc /RTC1 /MTd /GS /fp:precise /Zc:wchar_t /Zc:forScope /Zc:inline /Fo"X64\DEBUG\\" /Fd"X64\DEBUG\VC140.PDB" /Gd /TP C:\USERS\IVOTE\DOCUMENTS\LAPR5\PROJECT\VISITAVIRTUAL_V2\VISITAVIRTUAL3D\VISITAVIRTUAL3D\LIGHT.CPP
^C:\USERS\IVOTE\DOCUMENTS\LAPR5\PROJECT\VISITAVIRTUAL_V2\VISITAVIRTUAL3D\VISITAVIRTUAL3D\MAIN.CPP
/c /I"C:\PROGRAM FILES (X86)\OPENAL 1.1 SDK\INCLUDE" /I"C:\PROGRAM FILES (X86)\FREEALUT-1.1.0-BIN\INCLUDE" /ZI /nologo /W3 /WX- /sdl /Od /D _CRT_SECURE_NO_DEPRECATE /Gm /EHsc /RTC1 /MTd /GS /fp:precise /Zc:wchar_t /Zc:forScope /Zc:inline /Fo"X64\DEBUG\\" /Fd"X64\DEBUG\VC140.PDB" /Gd /TP C:\USERS\IVOTE\DOCUMENTS\LAPR5\PROJECT\VISITAVIRTUAL_V2\VISITAVIRTUAL3D\VISITAVIRTUAL3D\MAIN.CPP
^C:\USERS\IVOTE\DOCUMENTS\LAPR5\PROJECT\VISITAVIRTUAL_V2\VISITAVIRTUAL3D\VISITAVIRTUAL3D\MATH.CPP
/c /I"C:\PROGRAM FILES (X86)\OPENAL 1.1 SDK\INCLUDE" /I"C:\PROGRAM FILES (X86)\FREEALUT-1.1.0-BIN\INCLUDE" /ZI /nologo /W3 /WX- /sdl /Od /D _CRT_SECURE_NO_DEPRECATE /Gm /EHsc /RTC1 /MTd /GS /fp:precise /Zc:wchar_t /Zc:forScope /Zc:inline /Fo"X64\DEBUG\\" /Fd"X64\DEBUG\VC140.PDB" /Gd /TP C:\USERS\IVOTE\DOCUMENTS\LAPR5\PROJECT\VISITAVIRTUAL_V2\VISITAVIRTUAL3D\VISITAVIRTUAL3D\MATH.CPP
^C:\USERS\IVOTE\DOCUMENTS\LAPR5\PROJECT\VISITAVIRTUAL_V2\VISITAVIRTUAL3D\VISITAVIRTUAL3D\MDLVIEWER.CPP
/c /I"C:\PROGRAM FILES (X86)\OPENAL 1.1 SDK\INCLUDE" /I"C:\PROGRAM FILES (X86)\FREEALUT-1.1.0-BIN\INCLUDE" /ZI /nologo /W3 /WX- /sdl /Od /D _CRT_SECURE_NO_DEPRECATE /Gm /EHsc /RTC1 /MTd /GS /fp:precise /Zc:wchar_t /Zc:forScope /Zc:inline /Fo"X64\DEBUG\\" /Fd"X64\DEBUG\VC140.PDB" /Gd /TP C:\USERS\IVOTE\DOCUMENTS\LAPR5\PROJECT\VISITAVIRTUAL_V2\VISITAVIRTUAL3D\VISITAVIRTUAL3D\MDLVIEWER.CPP
^C:\USERS\IVOTE\DOCUMENTS\LAPR5\PROJECT\VISITAVIRTUAL_V2\VISITAVIRTUAL3D\VISITAVIRTUAL3D\MODEL.CPP
/c /I"C:\PROGRAM FILES (X86)\OPENAL 1.1 SDK\INCLUDE" /I"C:\PROGRAM FILES (X86)\FREEALUT-1.1.0-BIN\INCLUDE" /ZI /nologo /W3 /WX- /sdl /Od /D _CRT_SECURE_NO_DEPRECATE /Gm /EHsc /RTC1 /MTd /GS /fp:precise /Zc:wchar_t /Zc:forScope /Zc:inline /Fo"X64\DEBUG\\" /Fd"X64\DEBUG\VC140.PDB" /Gd /TP C:\USERS\IVOTE\DOCUMENTS\LAPR5\PROJECT\VISITAVIRTUAL_V2\VISITAVIRTUAL3D\VISITAVIRTUAL3D\MODEL.CPP
^C:\USERS\IVOTE\DOCUMENTS\LAPR5\PROJECT\VISITAVIRTUAL_V2\VISITAVIRTUAL3D\VISITAVIRTUAL3D\OBJECT.CPP
/c /I"C:\PROGRAM FILES (X86)\OPENAL 1.1 SDK\INCLUDE" /I"C:\PROGRAM FILES (X86)\FREEALUT-1.1.0-BIN\INCLUDE" /ZI /nologo /W3 /WX- /sdl /Od /D _CRT_SECURE_NO_DEPRECATE /Gm /EHsc /RTC1 /MTd /GS /fp:precise /Zc:wchar_t /Zc:forScope /Zc:inline /Fo"X64\DEBUG\\" /Fd"X64\DEBUG\VC140.PDB" /Gd /TP C:\USERS\IVOTE\DOCUMENTS\LAPR5\PROJECT\VISITAVIRTUAL_V2\VISITAVIRTUAL3D\VISITAVIRTUAL3D\OBJECT.CPP
^C:\USERS\IVOTE\DOCUMENTS\LAPR5\PROJECT\VISITAVIRTUAL_V2\VISITAVIRTUAL3D\VISITAVIRTUAL3D\POSITION.CPP
/c /I"C:\PROGRAM FILES (X86)\OPENAL 1.1 SDK\INCLUDE" /I"C:\PROGRAM FILES (X86)\FREEALUT-1.1.0-BIN\INCLUDE" /ZI /nologo /W3 /WX- /sdl /Od /D _CRT_SECURE_NO_DEPRECATE /Gm /EHsc /RTC1 /MTd /GS /fp:precise /Zc:wchar_t /Zc:forScope /Zc:inline /Fo"X64\DEBUG\\" /Fd"X64\DEBUG\VC140.PDB" /Gd /TP C:\USERS\IVOTE\DOCUMENTS\LAPR5\PROJECT\VISITAVIRTUAL_V2\VISITAVIRTUAL3D\VISITAVIRTUAL3D\POSITION.CPP
^C:\USERS\IVOTE\DOCUMENTS\LAPR5\PROJECT\VISITAVIRTUAL_V2\VISITAVIRTUAL3D\VISITAVIRTUAL3D\STATE.CPP
/c /I"C:\PROGRAM FILES (X86)\OPENAL 1.1 SDK\INCLUDE" /I"C:\PROGRAM FILES (X86)\FREEALUT-1.1.0-BIN\INCLUDE" /ZI /nologo /W3 /WX- /sdl /Od /D _CRT_SECURE_NO_DEPRECATE /Gm /EHsc /RTC1 /MTd /GS /fp:precise /Zc:wchar_t /Zc:forScope /Zc:inline /Fo"X64\DEBUG\\" /Fd"X64\DEBUG\VC140.PDB" /Gd /TP C:\USERS\IVOTE\DOCUMENTS\LAPR5\PROJECT\VISITAVIRTUAL_V2\VISITAVIRTUAL3D\VISITAVIRTUAL3D\STATE.CPP
^C:\USERS\IVOTE\DOCUMENTS\LAPR5\PROJECT\VISITAVIRTUAL_V2\VISITAVIRTUAL3D\VISITAVIRTUAL3D\STUDIO_RENDER.CPP
/c /I"C:\PROGRAM FILES (X86)\OPENAL 1.1 SDK\INCLUDE" /I"C:\PROGRAM FILES (X86)\FREEALUT-1.1.0-BIN\INCLUDE" /ZI /nologo /W3 /WX- /sdl /Od /D _CRT_SECURE_NO_DEPRECATE /Gm /EHsc /RTC1 /MTd /GS /fp:precise /Zc:wchar_t /Zc:forScope /Zc:inline /Fo"X64\DEBUG\\" /Fd"X64\DEBUG\VC140.PDB" /Gd /TP C:\USERS\IVOTE\DOCUMENTS\LAPR5\PROJECT\VISITAVIRTUAL_V2\VISITAVIRTUAL3D\VISITAVIRTUAL3D\STUDIO_RENDER.CPP
^C:\USERS\IVOTE\DOCUMENTS\LAPR5\PROJECT\VISITAVIRTUAL_V2\VISITAVIRTUAL3D\VISITAVIRTUAL3D\STUDIO_UTILS.CPP
/c /I"C:\PROGRAM FILES (X86)\OPENAL 1.1 SDK\INCLUDE" /I"C:\PROGRAM FILES (X86)\FREEALUT-1.1.0-BIN\INCLUDE" /ZI /nologo /W3 /WX- /sdl /Od /D _CRT_SECURE_NO_DEPRECATE /Gm /EHsc /RTC1 /MTd /GS /fp:precise /Zc:wchar_t /Zc:forScope /Zc:inline /Fo"X64\DEBUG\\" /Fd"X64\DEBUG\VC140.PDB" /Gd /TP C:\USERS\IVOTE\DOCUMENTS\LAPR5\PROJECT\VISITAVIRTUAL_V2\VISITAVIRTUAL3D\VISITAVIRTUAL3D\STUDIO_UTILS.CPP
^C:\USERS\IVOTE\DOCUMENTS\LAPR5\PROJECT\VISITAVIRTUAL_V2\VISITAVIRTUAL3D\VISITAVIRTUAL3D\TEXTURES.CPP
/c /I"C:\PROGRAM FILES (X86)\OPENAL 1.1 SDK\INCLUDE" /I"C:\PROGRAM FILES (X86)\FREEALUT-1.1.0-BIN\INCLUDE" /ZI /nologo /W3 /WX- /sdl /Od /D _CRT_SECURE_NO_DEPRECATE /Gm /EHsc /RTC1 /MTd /GS /fp:precise /Zc:wchar_t /Zc:forScope /Zc:inline /Fo"X64\DEBUG\\" /Fd"X64\DEBUG\VC140.PDB" /Gd /TP C:\USERS\IVOTE\DOCUMENTS\LAPR5\PROJECT\VISITAVIRTUAL_V2\VISITAVIRTUAL3D\VISITAVIRTUAL3D\TEXTURES.CPP
^C:\USERS\IVOTE\DOCUMENTS\LAPR5\PROJECT\VISITAVIRTUAL_V2\VISITAVIRTUAL3D\VISITAVIRTUAL3D\READJPEG.C
/c /I"C:\PROGRAM FILES (X86)\OPENAL 1.1 SDK\INCLUDE" /I"C:\PROGRAM FILES (X86)\FREEALUT-1.1.0-BIN\INCLUDE" /ZI /nologo /W3 /WX- /sdl /Od /D _CRT_SECURE_NO_DEPRECATE /Gm /EHsc /RTC1 /MTd /GS /fp:precise /Zc:wchar_t /Zc:forScope /Zc:inline /Fo"X64\DEBUG\\" /Fd"X64\DEBUG\VC140.PDB" /Gd /TC C:\USERS\IVOTE\DOCUMENTS\LAPR5\PROJECT\VISITAVIRTUAL_V2\VISITAVIRTUAL3D\VISITAVIRTUAL3D\READJPEG.C
